Problem Set 1
…
Hopefully, we would have seen the patterns in the data and not moved straight to the linear model.

Peacock hoots

Male peacocks give a hoot call when approaching a female to copulate. Sometimes males will hoot even when a female is not present. Dakin and Montgomerie2 hypothesized that males might perform these solitary hoots as a dishonest signal implying a copulation attempt to attract females. You can see an example hoot here

The data they collected consists of female presence before and after 131 solo hoot calls. This data is in the PeacockHoots.csv file. Load this data.

#FIXME

PP <- read_csv("../Data/PeacockHoots.csv",
               show_col_types = FALSE)
PP

# A tibble: 131 × 9
   Place DayofYear  Year Lek              MaleID Timeo…¹ Audie…² PrePost Femal…³
   <chr>     <dbl> <dbl> <chr>            <chr>  <time>  <chr>   <chr>     <dbl>
 1 TZ          157  2007 ElephantShit     102    08:10   N       Post          0
 2 TZ          157  2007 ElephantShit     102    08:10   N       Pre           0
 3 TZ          157  2007 AfricanPavillio… 101    10:13   N       Post          1
 4 TZ          157  2007 AfricanPavillio… 101    10:13   N       Pre           0
 5 TZ          158  2007 AfricanDirtPath  105    07:47   N       Post          0
 6 TZ          158  2007 AfricanDirtPath  105    07:47   N       Pre           0
 7 TZ          158  2007 AfricanDirtPath  105    08:20   N       Pre           0
 8 TZ          159  2007 IndoMalayan      103    08:14   N       Post          0
 9 TZ          159  2007 IndoMalayan      103    08:14   N       Pre           0
10 TZ          160  2007 ElephantShit     102    08:28   N       Pre           0
# … with 121 more rows, and abbreviated variable names ¹​TimeofHoot,
#   ²​AudienceMales, ³​FemaleVisit.5m
…
